{
    "KPlugin": {
        "Category": "Project Management",
        "Description": "Builds CMake Projects",
        "Description[az]": "CMake layihələrini qurur",
        "Description[bs]": "Gradi CMake projekte",
        "Description[ca@valencia]": "Construeix projectes CMake",
        "Description[ca]": "Construeix projectes CMake",
        "Description[cs]": "Překládá projekty CMake",
        "Description[de]": "Erstellt CMake-Projekte",
        "Description[el]": "Κατασκευάζει έργα cmake",
        "Description[en_GB]": "Builds CMake Projects",
        "Description[es]": "Compila proyectos de CMake",
        "Description[et]": "CMake'i projektide ehitamine",
        "Description[eu]": "CMake proiektuak eraikitzen ditu",
        "Description[fi]": "Kääntää CMake-projekteja",
        "Description[fr]": "Construit des projets CMake",
        "Description[gl]": "Constrúe proxectos CMake.",
        "Description[it]": "Compila i progetti CMake",
        "Description[ko]": "CMake 프로젝트 빌드",
        "Description[nl]": "Bouwt CMake-projecten",
        "Description[pl]": "Buduje projekty CMake",
        "Description[pt]": "Construtor de Projectos CMake no KDevelop",
        "Description[pt_BR]": "Compila projetos CMake",
        "Description[ru]": "Собирает проекты CMake",
        "Description[sk]": "Prekladá projekty CMake",
        "Description[sl]": "Izgradi projekte CMake",
        "Description[sv]": "Bygger CMake-projekt",
        "Description[tr]": "CMake Projelerini Derler",
        "Description[uk]": "Збирає проєкти CMake",
        "Description[x-test]": "xxBuilds CMake Projectsxx",
        "Description[zh_CN]": "构建 CMake 工程",
        "Icon": "cmake",
        "Id": "KDevCMakeBuilder",
        "Name": "CMake Project Builder",
        "Name[az]": "CMake layihə qurucusu",
        "Name[bs]": "CMake graditelj projekta",
        "Name[ca@valencia]": "Constructor de projecte CMake",
        "Name[ca]": "Constructor de projecte CMake",
        "Name[cs]": "Překladač projektů CMake",
        "Name[de]": "Ersteller für CMake-Projekte",
        "Name[el]": "Κατασκευαστής έργου cmake",
        "Name[en_GB]": "CMake Project Builder",
        "Name[es]": "Compilador de proyectos CMake",
        "Name[et]": "CMake'i projektiehitaja",
        "Name[eu]": "CMake proiektu eraikitzailea",
        "Name[fi]": "CMake-projektikäännin",
        "Name[fr]": "Constructeur de projet CMake",
        "Name[gl]": "Construtor de proxectos CMake",
        "Name[it]": "Compilatore progetto CMake",
        "Name[ka]": "CMake პროექტების ამგები",
        "Name[ko]": "CMake 프로젝트 빌더",
        "Name[nl]": "CMake-projectbouwer",
        "Name[pl]": "Budowniczy projektu CMake",
        "Name[pt]": "Compilador de Projectos do CMake",
        "Name[pt_BR]": "Compilador de projeto do CMake",
        "Name[ru]": "Сборщик проектов CMake",
        "Name[sk]": "Prekladač projektov CMake",
        "Name[sl]": "Izgrajevalnik projektov CMake",
        "Name[sv]": "CMake-projektbyggverktyg",
        "Name[tr]": "CMake Proje Oluşturucu",
        "Name[uk]": "Інструмент збирання проєктів CMake",
        "Name[x-test]": "xxCMake Project Builderxx",
        "Name[zh_CN]": "CMake 工程构建器"
    },
    "X-KDevelop-Category": "Project",
    "X-KDevelop-IRequired": [
        "org.kdevelop.IOutputView",
        "org.kdevelop.IMakeBuilder"
    ],
    "X-KDevelop-Interfaces": [
        "org.kdevelop.IProjectBuilder"
    ],
    "X-KDevelop-Mode": "NoGUI",
    "X-KDevelop-ProjectBuilder": "CMake"
}
