{
    "KPlugin": {
        "Category": "Debugging",
        "Description": "This plugin provides a frontend for GDB, a source-level debugger for C, C++ and more.",
        "Description[az]": "Bu qoşma, C, C++ və s. üçün mənbə kodu səviyyəsindəki xəta sazlayıcı olan GDB üçün interfeysi təmin edir.",
        "Description[bs]": "Ovaj dodatak pruža link za GDB, ispravljač grešaka izvornog nivoa za C, C++ i druge.",
        "Description[ca@valencia]": "Este connector proveeix d'un frontal per a GDB, un depurador quant a codi per a C, C++ i més llenguatges.",
        "Description[ca]": "Aquest connector proveeix d'un frontal per al GDB, un depurador quant a codi per a C, C++ i més llenguatges.",
        "Description[de]": "Dieses Modul stellt eine Oberfläche für GDB zur Verfügung. GDB ist ein Debugger für C, C++ und weitere Sprachen.",
        "Description[el]": "Αυτό το πρόσθετο παρέχει ένα περιβάλλον χρήσης για το GDB, έναν διορθωτή σφαλμάτων πηγαίου κώδικα για C, C++ και άλλες.",
        "Description[en_GB]": "This plugin provides a frontend for GDB, a source-level debugger for C, C++ and more.",
        "Description[es]": "Este complemento proporciona una interfaz para GDB, un depurador de código fuente para C, C++ y otros lenguajes.",
        "Description[et]": "See plugin pakub GDB - C, C++ jm lähtekoodi tasandil siluri - kasutajaliidest.",
        "Description[eu]": "Plugin honek aurrealde bat ematen tu GDBntzako, C, C++ etab. lengoaientzako iturri-mailako araztaile bat.",
        "Description[fi]": "Tämä liitännäinen tarjoaa GDB-käyttöliittymän, lähdekooditason virheenpaikantimen C-, C++-kielille ja paljon muuta",
        "Description[fr]": "Ce module fournit une interface pour GDB, un débogueur niveau source pour le C, C++ et plus.",
        "Description[gl]": "Este complemento fornece unha interface para GDB, un depurador a nivel do código fonte para C, C++ e outros.",
        "Description[it]": "Questa estensione fornisce un'interfaccia per GDB, un debugger a livello sorgente per C, C++ e altro.",
        "Description[ko]": "이 플러그인은 C, C++ 등 디버거인 GDB 프론트엔드를 제공합니다.",
        "Description[nl]": "Deze plugin levert een frontend voor GDB, een broncodedebugger voor C, C++ en meer.",
        "Description[pl]": "Udostępnia interfejs do GDB, programu diagnostycznego dla C, C++ i innych języków.",
        "Description[pt]": "Este 'plugin' oferece uma interface para o GDB, um depurador de código para C, C++, entre outros.",
        "Description[pt_BR]": "Este plugin oferece uma interface para o GDB, um depurador em nível de código-fonte para C, C++, entre outros.",
        "Description[ru]": "Это расширение предоставляет интерфейс к GDB, отладчику исходного кода для C, C++ и других языков",
        "Description[sk]": "Tento modul poskytuje rozhranie pre GDB, zdrojový debuger pre C, C++ a ďalšie.",
        "Description[sl]": "Ta vstavek prinaša začelje za GDB, razhroščevalnik na ravni izvorne kode za C, C++ in več.",
        "Description[sv]": "Insticksprogrammet tillhandahåller ett gränssnitt till GDB, en källkodsavlusare för C, C++ med mera.",
        "Description[tr]": "Bu eklenti, C, C++ ve daha fazlası için bir kaynak düzeyinde hata ayıklayıcı olan GDB için bir önuç sağlar.",
        "Description[uk]": "Цей додаток надає можливість користуватися клієнтським інтерфейсом GDB, зневадника вихідного коду на C, C++ тощо.",
        "Description[x-test]": "xxThis plugin provides a frontend for GDB, a source-level debugger for C, C++ and more.xx",
        "Description[zh_CN]": "此插件提供了 GDB 前端，GDB 是一个源码级的 C、C++ 等多语言的调试器。",
        "Icon": "kdevelop",
        "Id": "kdevgdb",
        "License": "GPL",
        "Name": "GDB Support",
        "Name[az]": "GDB dəstəyi",
        "Name[bs]": "GDB podrška",
        "Name[ca@valencia]": "Implementació de GDB",
        "Name[ca]": "Implementació del GDB",
        "Name[cs]": "Podpora GDB",
        "Name[de]": "Unterstützung für GDB",
        "Name[el]": "Υποστήριξη GDB",
        "Name[en_GB]": "GDB Support",
        "Name[es]": "Implementación de GDB",
        "Name[et]": "GDB toetus",
        "Name[eu]": "GDB bateragarritasuna",
        "Name[fi]": "GDB-tuki",
        "Name[fr]": "Prise en charge de GDB",
        "Name[gl]": "Compatibilidade con GDB",
        "Name[hu]": "GDB támogatás",
        "Name[it]": "Supporto per GDB",
        "Name[ka]": "GDB-ის მხარდაჭერა",
        "Name[ko]": "GDB 지원",
        "Name[nl]": "Ondersteuning voor GDB",
        "Name[nn]": "GDB-støtte",
        "Name[pl]": "Obsługa GDB",
        "Name[pt]": "Suporte para o GDB",
        "Name[pt_BR]": "Suporte ao GDB",
        "Name[ru]": "Поддержка GDB",
        "Name[sk]": "Podpora GDB",
        "Name[sl]": "Podpora za GDB",
        "Name[sv]": "GDB-stöd",
        "Name[tr]": "GDB Desteği",
        "Name[uk]": "Підтримка GDB",
        "Name[x-test]": "xxGDB Supportxx",
        "Name[zh_CN]": "GDB 支持"
    },
    "X-KDevelop-Category": "Global",
    "X-KDevelop-IRequired": [
        "org.kdevelop.IExecutePlugin"
    ],
    "X-KDevelop-Interfaces": [
        "org.kdevelop.IStatus"
    ],
    "X-KDevelop-Mode": "GUI"
}
