{
    "KPlugin": {
        "Category": "Project Management",
        "Description": "Imports and edits QMake projects",
        "Description[az]": "QMake layihələrini idxal edir və onlara düzəliş edir",
        "Description[ca@valencia]": "Importa i edita projectes de QMake",
        "Description[ca]": "Importa i edita projectes del QMake",
        "Description[cs]": "Importuje a upravuje vlastní projekty QMake",
        "Description[de]": "Import und Bearbeitung von benutzerdefinierten QMake-Projekten",
        "Description[el]": "Εισάγει και επεξεργάζεται έργα qmake",
        "Description[en_GB]": "Imports and edits QMake projects",
        "Description[es]": "Importa y edita proyectos QMake",
        "Description[et]": "QMake'i projektide importimine ja muutmine",
        "Description[eu]": "QMake proiektuak inportatu eta editatzen ditu",
        "Description[fi]": "Tuo ja muokkaa QMake-projekteja",
        "Description[fr]": "Importe et édite des projets QMake",
        "Description[gl]": "Importa e edita proxectos QMake.",
        "Description[it]": "Importa e modifica i progetti QMake",
        "Description[ko]": "QMake 프로젝트를 가져오고 관리하기",
        "Description[nl]": "Importeert en bewerkt QMake-projecten",
        "Description[pl]": "Importuje i edytuje projekty QMake",
        "Description[pt]": "Importa e edita os projectos do QMake",
        "Description[pt_BR]": "Importa e edita os projetos do QMake",
        "Description[ru]": "Импорт и настройка проектов QMake",
        "Description[sk]": "Importuje a upravuje projekty QMake",
        "Description[sl]": "Uvozi in ureja projekte po meri temelječe na QMake",
        "Description[sv]": "Importerar och redigerar QMake-projekt",
        "Description[tr]": "QMake projelerini içeriye aktarır ve düzenler",
        "Description[uk]": "Імпортує і дає змогу редагувати проєкти QMake",
        "Description[x-test]": "xxImports and edits QMake projectsxx",
        "Description[zh_CN]": "导入并编辑 QMake 工程",
        "Icon": "qtlogo",
        "Id": "KDevQMakeManager",
        "Name": "QMake Project Manager",
        "Name[az]": "QMake layihə meneceri",
        "Name[ca@valencia]": "Gestor de projectes QMake",
        "Name[ca]": "Gestor de projectes QMake",
        "Name[cs]": "Správce projektů QMake",
        "Name[de]": "QMake-Projektverwaltung",
        "Name[el]": "Διαχειριστής έργου QMake",
        "Name[en_GB]": "QMake Project Manager",
        "Name[es]": "Gestor de proyectos QMake",
        "Name[et]": "QMake'i projektihaldur",
        "Name[eu]": "QMake proiektu kudeatzailea",
        "Name[fi]": "QMake-projektinhallinta",
        "Name[fr]": "Gestionnaire de projet QMake",
        "Name[gl]": "Xestor de proxectos QMake",
        "Name[it]": "Gestore progetto QMake",
        "Name[ka]": "QMake პროექტების მმართველი",
        "Name[ko]": "QMake 프로젝트 관리자",
        "Name[nl]": "QMake-projectbeheerder",
        "Name[pl]": "Zarządzanie projektami QMake",
        "Name[pt]": "Gestor de Projectos do QMake",
        "Name[pt_BR]": "Gerenciador de projetos do QMake",
        "Name[ru]": "Управление проектами QMake",
        "Name[sk]": "Správca projektov QMake",
        "Name[sl]": "Upravljalnik projektov QMake",
        "Name[sv]": "QMake-projekthantering",
        "Name[tr]": "QMake Proje Yöneticisi",
        "Name[uk]": "Керування проєктами QMake",
        "Name[x-test]": "xxQMake Project Managerxx",
        "Name[zh_CN]": "QMake 工程管理器"
    },
    "X-KDevelop-Category": "Project",
    "X-KDevelop-FileManager": "QMake",
    "X-KDevelop-IRequired": [
        "org.kdevelop.IQMakeBuilder"
    ],
    "X-KDevelop-Interfaces": [
        "org.kdevelop.IBuildSystemManager",
        "org.kdevelop.IProjectFileManager"
    ],
    "X-KDevelop-Mode": "NoGUI",
    "X-KDevelop-ProjectFilesFilter": [
        "*.pro"
    ],
    "X-KDevelop-ProjectFilesFilterDescription": "QMake Project Files"
}
