{
    "KPlugin": {
        "Authors": [
            {
                "Name": "Andreas Pakulat",
                "Name[ar]": "Andreas Pakulat",
                "Name[az]": "Andreas Pakulat",
                "Name[ca@valencia]": "Andreas Pakulat",
                "Name[ca]": "Andreas Pakulat",
                "Name[cs]": "Andreas Pakulat",
                "Name[de]": "Andreas Pakulat",
                "Name[el]": "Andreas Pakulat",
                "Name[en_GB]": "Andreas Pakulat",
                "Name[es]": "Andreas Pakulat",
                "Name[et]": "Andreas Pakulat",
                "Name[eu]": "Andreas Pakulat",
                "Name[fr]": "Andreas Pakulat",
                "Name[gl]": "Andreas Pakulat",
                "Name[it]": "Andreas Pakulat",
                "Name[ka]": "ანდრეას პაკულატი",
                "Name[ko]": "Andreas Pakulat",
                "Name[nl]": "Andreas Pakulat",
                "Name[nn]": "Andreas Pakulat",
                "Name[pl]": "Andreas Pakulat",
                "Name[pt]": "Andreas Pakulat",
                "Name[pt_BR]": "Andreas Pakulat",
                "Name[ru]": "Andreas Pakulat",
                "Name[sk]": "Andreas Pakulat",
                "Name[sl]": "Andreas Pakulat",
                "Name[sv]": "Andreas Pakulat",
                "Name[tr]": "Andreas Pakulat",
                "Name[uk]": "Andreas Pakulat",
                "Name[x-test]": "xxAndreas Pakulatxx",
                "Name[zh_CN]": "Andreas Pakulat"
            }
        ],
        "Category": "Utilities",
        "Description": "A most-recently-used document switcher for KDevPlatform.",
        "Description[az]": "KDevPlatform üçün ən-son-istifadə-olunan sənədlərin dəyişdiricisi",
        "Description[ca@valencia]": "Un commutador del document usat més recentment per la KDevPlatform.",
        "Description[ca]": "Un commutador del document usat més recentment per la KDevPlatform.",
        "Description[cs]": "Přepínač nedávno použitých dokumentů pro KDevPlatform",
        "Description[de]": "Ein Umschalter zwischen zuletzt geöffneten Dokumenten für KDevPlatform.",
        "Description[el]": "Ένας εναλλάκτης μεταξύ πρόσφατα χρησιμοποιημένων εγγράφων για το KDevPlatform.",
        "Description[en_GB]": "A most-recently-used document switcher for KDevPlatform.",
        "Description[es]": "Un cambiador de documentos recientemente usados para KDevPlatform.",
        "Description[et]": "KDevPlatformi viimati kasutatud dokumentide vahetaja",
        "Description[eu]": "Azken aldian erabilitako dokumentuen aldatzailea KDevPlatformentzako.",
        "Description[fr]": "Un changeur de document dernièrement utilisé pour KDevPlatform.",
        "Description[gl]": "Un selector entre documentos empregados recentemente para KDevPlatform.",
        "Description[it]": "Uno scambia documento utilizzato più di recente per KDevPlatform.",
        "Description[ko]": "최근에 사용한 문서 전환기입니다.",
        "Description[nl]": "De meest-recent-gebruikte documentwisselaar voor KDevPlatform.",
        "Description[pl]": "Przechodzi pomiędzy ostatnio używanymi dokumentami.",
        "Description[pt]": "Um selector dos documentos usados mais recentemente para o KDevPlatform.",
        "Description[pt_BR]": "Um seletor dos documentos mais recentes para o KDevPlatform.",
        "Description[ru]": "Переключатель недавних документов для KDevPlatform",
        "Description[sk]": "Prepínač posledných použitých dokumentov pre KDevPlatform.",
        "Description[sl]": "Vstavek za preklapljanje med nazadnje uporabljenimi dokumenti.",
        "Description[sv]": "Byte till senast använda dokument för KDevelop-plattformen.",
        "Description[tr]": "KDevPlatform için en-son-kullanılan belge seçici bir eklenti.",
        "Description[uk]": "Перемикач останніх використаних документів для KDevPlatform.",
        "Description[x-test]": "xxA most-recently-used document switcher for KDevPlatform.xx",
        "Description[zh_CN]": "KDevPlatform 的最近经常使用文档的切换器。",
        "Description[zh_TW]": "KDevPlatform 上切換最近使用的文件的切換器",
        "Icon": "document-open-recent",
        "Id": "kdevdocumentswitcher",
        "License": "GPL",
        "Name": "Most-Recently-Used Document Switcher",
        "Name[ar]": "مبدّل المستندات المستخدمة-حديثًا",
        "Name[az]": "Az əvvəl istifadə olunan sənəd dəyişdiricisi",
        "Name[bg]": "Последният използван превключвател на документи",
        "Name[bs]": "Mjenjač zadnjeg korištenog dokumenta",
        "Name[ca@valencia]": "Commutador del document usat més recentment",
        "Name[ca]": "Commutador del document usat més recentment",
        "Name[cs]": "Přepínač nedávno používaných dokumentů ",
        "Name[da]": "Dokumentskifter til nyligt anvendte",
        "Name[de]": "Zuletzt-Verwendet-Dokumentumschalter",
        "Name[el]": "Εναλλάκτης μεταξύ πρόσφατα χρησιμοποιημένων εγγράφων",
        "Name[en_GB]": "Most-Recently-Used Document Switcher",
        "Name[es]": "Selector de documentos usados recientemente",
        "Name[et]": "Viimati kasutatud dokumentide vahetaja",
        "Name[eu]": "Azken erabilitako dokumentuen aldatzailea",
        "Name[fr]": "Commutateur de documents parmi les plus récemment utilisés",
        "Name[gl]": "Selector entre documentos empregados recentemente",
        "Name[hu]": "Dokumentumváltó",
        "Name[it]": "Scambia documento utilizzato più di recente",
        "Name[ka]": "ყველაზე-ბოლოს-გამოყენებული დოკუმენტების გადამრთველი",
        "Name[kk]": "Жуырда қолданған құжаттар ауыстырғышы",
        "Name[ko]": "최근에 사용한 문서 전환기",
        "Name[nb]": "Sist-brukte dokumentbytter",
        "Name[nds]": "Togrieper för de tolest bruukten Dokmenten",
        "Name[nl]": "Meest-recent-gebruikte documentwisselaar",
        "Name[pl]": "Przełączanie między ostatnio używanymi dokumentami",
        "Name[pt]": "Selector dos Documentos Usados Mais Recentemente",
        "Name[pt_BR]": "Seletor dos documentos usados mais recentemente",
        "Name[ru]": "Переключатель недавних документов",
        "Name[sk]": "Prepínač posledných použitých dokumentov",
        "Name[sl]": "Preklapljanje med nazadnje uporabljenimi dokumenti",
        "Name[sv]": "Byte till senast använda dokument",
        "Name[tr]": "Yakın Zamanda En Çok Kullanılan Belgeleri Seçici",
        "Name[uk]": "Перемикач нещодавно використаних документів",
        "Name[x-test]": "xxMost-Recently-Used Document Switcherxx",
        "Name[zh_CN]": "最近经常使用文档切换器",
        "Name[zh_TW]": "最近使用的文件切換器",
        "Version": "0.1"
    },
    "X-KDevelop-Category": "Global",
    "X-KDevelop-Mode": "GUI"
}
